module gitlab.com/marek2222/goTest/api/chromedp

go 1.20

require (
	github.com/chromedp/cdproto v0.0.0-20230828023241-f357fd93b5d6
	github.com/chromedp/chromedp v0.9.2
)

require (
	github.com/chromedp/sysutil v1.0.0 // indirect
	github.com/gobwas/httphead v0.1.0 // indirect
	github.com/gobwas/pool v0.2.1 // indirect
	github.com/gobwas/ws v1.2.1 // indirect
	github.com/josharian/intern v1.0.0 // indirect
	github.com/mailru/easyjson v0.7.7 // indirect
	golang.org/x/sys v0.6.0 // indirect
)
